%YAML 1.1
%TAG !u! tag:unity3d.com,2011:
--- !u!64 &8624502021698133319
MeshCollider:
  m_ObjectHideFlags: 0
  m_CorrespondingSourceObject: {fileID: 0}
  m_PrefabInstance: {fileID: 0}
  m_PrefabAsset: {fileID: 0}
  m_GameObject: {fileID: 1791531918373385489}
  m_Material: {fileID: 0}
  m_IsTrigger: 0
  m_Enabled: 1
  serializedVersion: 4
  m_Convex: 0
  m_CookingOptions: 30
  m_Mesh: {fileID: 3113156620947750961, guid: baec77a5ffe193947be20192fa815ca9, type: 3}
--- !u!1 &7781412977107904284
GameObject:
  m_ObjectHideFlags: 0
  m_CorrespondingSourceObject: {fileID: 0}
  m_PrefabInstance: {fileID: 0}
  m_PrefabAsset: {fileID: 0}
  serializedVersion: 6
  m_Component:
  - component: {fileID: 7781412977107904285}
  m_Layer: 0
  m_Name: item_button_broken_part1
  m_TagString: Untagged
  m_Icon: {fileID: 0}
  m_NavMeshLayer: 0
  m_StaticEditorFlags: 0
  m_IsActive: 1
--- !u!4 &7781412977107904285
Transform:
  m_ObjectHideFlags: 0
  m_CorrespondingSourceObject: {fileID: 0}
  m_PrefabInstance: {fileID: 0}
  m_PrefabAsset: {fileID: 0}
  m_GameObject: {fileID: 7781412977107904284}
  m_LocalRotation: {x: 0, y: 0, z: 0, w: 1}
  m_LocalPosition: {x: 0, y: 0, z: 0}
  m_LocalScale: {x: 1, y: 1, z: 1}
  m_Children:
  - {fileID: 3352812348954740482}
  m_Father: {fileID: 0}
  m_RootOrder: 0
  m_LocalEulerAnglesHint: {x: 0, y: 0, z: 0}
--- !u!1001 &7781412976055299096
PrefabInstance:
  m_ObjectHideFlags: 0
  serializedVersion: 2
  m_Modification:
    m_TransformParent: {fileID: 7781412977107904285}
    m_Modifications:
    - target: {fileID: -4216859302048453862, guid: baec77a5ffe193947be20192fa815ca9,
        type: 3}
      propertyPath: m_LocalPosition.x
      value: 0
      objectReference: {fileID: 0}
    - target: {fileID: -4216859302048453862, guid: baec77a5ffe193947be20192fa815ca9,
        type: 3}
      propertyPath: m_LocalPosition.y
      value: 0.025
      objectReference: {fileID: 0}
    - target: {fileID: -4216859302048453862, guid: baec77a5ffe193947be20192fa815ca9,
        type: 3}
      propertyPath: m_LocalPosition.z
      value: 0
      objectReference: {fileID: 0}
    - target: {fileID: -4216859302048453862, guid: baec77a5ffe193947be20192fa815ca9,
        type: 3}
      propertyPath: m_LocalRotation.x
      value: 0
      objectReference: {fileID: 0}
    - target: {fileID: -4216859302048453862, guid: baec77a5ffe193947be20192fa815ca9,
        type: 3}
      propertyPath: m_LocalRotation.y
      value: 0
      objectReference: {fileID: 0}
    - target: {fileID: -4216859302048453862, guid: baec77a5ffe193947be20192fa815ca9,
        type: 3}
      propertyPath: m_LocalRotation.z
      value: 0
      objectReference: {fileID: 0}
    - target: {fileID: -4216859302048453862, guid: baec77a5ffe193947be20192fa815ca9,
        type: 3}
      propertyPath: m_LocalRotation.w
      value: 1
      objectReference: {fileID: 0}
    - target: {fileID: -4216859302048453862, guid: baec77a5ffe193947be20192fa815ca9,
        type: 3}
      propertyPath: m_RootOrder
      value: 0
      objectReference: {fileID: 0}
    - target: {fileID: -4216859302048453862, guid: baec77a5ffe193947be20192fa815ca9,
        type: 3}
      propertyPath: m_LocalEulerAnglesHint.x
      value: 0
      objectReference: {fileID: 0}
    - target: {fileID: -4216859302048453862, guid: baec77a5ffe193947be20192fa815ca9,
        type: 3}
      propertyPath: m_LocalEulerAnglesHint.y
      value: 0
      objectReference: {fileID: 0}
    - target: {fileID: -4216859302048453862, guid: baec77a5ffe193947be20192fa815ca9,
        type: 3}
      propertyPath: m_LocalEulerAnglesHint.z
      value: 0
      objectReference: {fileID: 0}
    - target: {fileID: -927199367670048503, guid: baec77a5ffe193947be20192fa815ca9,
        type: 3}
      propertyPath: m_Name
      value: button_broken_part1
      objectReference: {fileID: 0}
    m_RemovedComponents: []
  m_SourcePrefab: {fileID: 100100000, guid: baec77a5ffe193947be20192fa815ca9, type: 3}
--- !u!1 &1791531918373385489 stripped
GameObject:
  m_CorrespondingSourceObject: {fileID: -927199367670048503, guid: baec77a5ffe193947be20192fa815ca9,
    type: 3}
  m_PrefabInstance: {fileID: 7781412976055299096}
  m_PrefabAsset: {fileID: 0}
--- !u!4 &3352812348954740482 stripped
Transform:
  m_CorrespondingSourceObject: {fileID: -4216859302048453862, guid: baec77a5ffe193947be20192fa815ca9,
    type: 3}
  m_PrefabInstance: {fileID: 7781412976055299096}
  m_PrefabAsset: {fileID: 0}
