%YAML 1.1
%TAG !u! tag:unity3d.com,2011:
--- !u!114 &11400000
MonoBehaviour:
  m_ObjectHideFlags: 0
  m_CorrespondingSourceObject: {fileID: 0}
  m_PrefabInstance: {fileID: 0}
  m_PrefabAsset: {fileID: 0}
  m_GameObject: {fileID: 0}
  m_Enabled: 1
  m_EditorHideFlags: 0
  m_Script: {fileID: 11500000, guid: 36c13b5d5fffe5443b9b7c7b8e6bc33f, type: 3}
  m_Name: InstructionData_inspectenv
  m_EditorClassIdentifier: 
  title: Inspect
  sprite: {fileID: 21300000, guid: 7ff64691e7607f64585078f1936635b8, type: 3}
  explanation: Click an item to inspect it.
