%YAML 1.1
%TAG !u! tag:unity3d.com,2011:
--- !u!114 &11400000
MonoBehaviour:
  m_ObjectHideFlags: 0
  m_CorrespondingSourceObject: {fileID: 0}
  m_PrefabInstance: {fileID: 0}
  m_PrefabAsset: {fileID: 0}
  m_GameObject: {fileID: 0}
  m_Enabled: 1
  m_EditorHideFlags: 0
  m_Script: {fileID: 11500000, guid: e3822cbf5695a514ca28a782f364a852, type: 3}
  m_Name: IID_07SL_sequence
  m_EditorClassIdentifier: 
  prefab: {fileID: 6092272707770086530, guid: cba90c0d50bae51488939138efcd6374, type: 3}
  viewRotation: {x: -75, y: 0, z: 0}
  inspectRotation: {x: 0, y: 0, z: 0}
