%YAML 1.1
%TAG !u! tag:unity3d.com,2011:
--- !u!114 &11400000
MonoBehaviour:
  m_ObjectHideFlags: 0
  m_CorrespondingSourceObject: {fileID: 0}
  m_PrefabInstance: {fileID: 0}
  m_PrefabAsset: {fileID: 0}
  m_GameObject: {fileID: 0}
  m_Enabled: 1
  m_EditorHideFlags: 0
  m_Script: {fileID: 11500000, guid: e3822cbf5695a514ca28a782f364a852, type: 3}
  m_Name: InventoryItemData_AxeBlade
  m_EditorClassIdentifier: 
  Name: AxeBlade
  Prefab: {fileID: -927199367670048503, guid: b11b9c797ba9dc845920d88eef05082a, type: 3}
