%YAML 1.1
%TAG !u! tag:unity3d.com,2011:
--- !u!114 &11400000
MonoBehaviour:
  m_ObjectHideFlags: 0
  m_CorrespondingSourceObject: {fileID: 0}
  m_PrefabInstance: {fileID: 0}
  m_PrefabAsset: {fileID: 0}
  m_GameObject: {fileID: 0}
  m_Enabled: 1
  m_EditorHideFlags: 0
  m_Script: {fileID: 11500000, guid: 437ee9e33fa1f314093f4e9976d48aa6, type: 3}
  m_Name: PuzzlePieceData_CabinetDoor
  m_EditorClassIdentifier: 
  Name: 
  State: 1
  _blockMessage: It's locked
  _actionMessage: 
  ActionRequisites:
  - {fileID: 11400000, guid: 719698945e423be4389e75cbc8de6d25, type: 2}
